{
  "category1": {
    "name": "Category 1",
    "stage": "stage_with_two_groups",
    "group": "group1",
    "label": "Category:1",
    "feature_labels": [
      "feature1"
    ]
  },
  "category2": {
    "name": "Category 2",
    "stage": "stage_with_two_groups",
    "group": "group1",
    "label": "Category:2",
    "feature_labels": [
      "feature2"
    ]
  },
  "category3": {
    "name": "Category 3",
    "stage": "stage_with_two_groups",
    "group": "group2",
    "label": "Category:3",
    "feature_labels": [
      "feature3"
    ]
  },
  "category4": {
    "name": "Category 4",
    "stage": "stage_with_two_groups",
    "group": "group2",
    "label": "Category:4",
    "feature_labels": [
      "feature4"
    ]
  },
  "category5": {
    "name": "Category 5",
    "stage": "stage_with_one_group",
    "group": "group3",
    "label": "Category:5",
    "feature_labels": [
      "feature5"
    ]
  },
  "category_with_no_group": {
    "name": "Category with no group",
    "stage": "stage_with_one_group",
    "group": null,
    "label": "Category:category_with_no_group",
    "feature_labels": [
      "feature6"
    ]
  }
}
